<?xml version="1.0" standalone="no"?>
<!DOCTYPE svg PUBLIC "-//W3C//DTD SVG 1.1//EN" "http://www.w3.org/Graphics/SVG/1.1/DTD/svg11.dtd" >
<svg xmlns="http://www.w3.org/2000/svg">
<metadata></metadata>
<defs>
<font id="helveticaneuebold" horiz-adv-x="1138" >
<font-face units-per-em="2048" ascent="1638" descent="-410" />
<missing-glyph horiz-adv-x="569" />
<glyph horiz-adv-x="2048" />
<glyph horiz-adv-x="2048" />
<glyph unicode="&#xd;" horiz-adv-x="2048" />
<glyph unicode=" "  horiz-adv-x="569" />
<glyph unicode="&#x09;" horiz-adv-x="569" />
<glyph unicode="&#xa0;" horiz-adv-x="569" />
<glyph unicode="!" horiz-adv-x="569" d="M125 0v313h317v-313h-317zM131 1065v393h305v-389l-80 -625h-145z" />
<glyph unicode="&#x22;" horiz-adv-x="948" d="M184 1421h217l-36 -600h-142zM547 1421h217l-39 -600h-139z" />
<glyph unicode="#" d="M6 393v172h215l53 289h-180v174h213l76 393h209l-76 -393h223l76 393h209l-76 -393h182v-174h-215l-53 -289h180v-172h-213l-75 -393h-209l76 393h-226l-73 -393h-209l75 393h-182zM430 565h223l54 289h-224z" />
<glyph unicode="$" d="M-12 444l2 13h291v-19q0 -234 231 -252v437q-80 14 -143 31.5t-128.5 49.5t-109 75t-71 108.5t-27.5 148.5q0 105 38 185t106 129t151.5 76t183.5 34v156h111v-156q220 -5 345.5 -110.5t125.5 -286.5v-29h-273v15q0 96 -50 144.5t-148 59.5v-395l12 -2q82 -13 149 -32 t135.5 -54t115 -80.5t75.5 -115t29 -156.5q0 -201 -142 -325.5t-374 -127.5v-172h-111v172q-112 2 -206.5 33t-166 89.5t-111.5 150t-40 206.5zM303 1069q0 -45 15 -77t50 -53t59 -30t75 -23q7 -2 10 -3v368q-98 -4 -153.5 -53t-55.5 -129zM623 184q103 3 165 61t62 150 q0 82 -55 131t-172 72v-414z" />
<glyph unicode="%" horiz-adv-x="2048" d="M160 1049q0 190 90 293.5t254 103.5q166 0 254 -99.5t88 -287.5q0 -199 -87.5 -304.5t-252.5 -105.5q-167 0 -256.5 103.5t-89.5 296.5zM369 1038q0 -129 30.5 -185t100.5 -56q72 0 103.5 62t31.5 200q0 31 -1 51.5t-4.5 51.5t-12.5 52t-23 41.5t-37.5 30.5t-54.5 10 q-69 0 -101 -62t-32 -196zM522 -55l807 1530h180l-804 -1530h-183zM1212 371q0 190 90 293.5t254 103.5q166 0 254 -99.5t88 -287.5q0 -199 -87.5 -304.5t-251.5 -105.5q-167 0 -257 103.5t-90 296.5zM1421 360q0 -129 30.5 -185t100.5 -56q72 0 104 62t32 200q0 30 -1 51.5 t-5 52t-13 51.5t-23 41t-37.5 30.5t-54.5 10.5q-69 0 -101 -62t-32 -196z" />
<glyph unicode="&#x26;" horiz-adv-x="1402" d="M70 399q0 146 92 257t237 175q-72 88 -104.5 159.5t-32.5 144.5q0 149 111 245.5t282 96.5q164 0 271.5 -98.5t107.5 -248.5q0 -233 -254 -368l189 -230q35 60 53 173h250q-23 -217 -139 -359l297 -346h-355l-121 143q-77 -84 -184 -129t-223 -45q-129 0 -236 49.5 t-174 149t-67 231.5zM352 408q0 -82 60.5 -139.5t146.5 -57.5q130 0 242 127l-252 305q-102 -53 -149.5 -109t-47.5 -126zM520 1145q0 -80 117 -211q82 49 116.5 96t34.5 107q0 59 -37.5 97t-95.5 38t-96.5 -36.5t-38.5 -90.5z" />
<glyph unicode="'" horiz-adv-x="569" d="M174 1421h221l-43 -600h-135z" />
<glyph unicode="(" horiz-adv-x="606" d="M109 543q0 245 69 496.5t199 441.5h241q-119 -237 -173 -454.5t-54 -477.5q0 -448 232 -914h-246q-128 192 -198 432t-70 476z" />
<glyph unicode=")" horiz-adv-x="606" d="M-8 1481h241q132 -203 202.5 -437t70.5 -475q0 -233 -71.5 -501t-196.5 -433h-244q122 249 174.5 461t52.5 477q0 237 -58.5 472t-170.5 436z" />
<glyph unicode="*" horiz-adv-x="833" d="M45 1155l53 158l238 -90l-6 256h172l-8 -256l237 90l60 -158l-242 -80l149 -201l-135 -100l-149 211l-146 -211l-137 100l152 201z" />
<glyph unicode="+" horiz-adv-x="1228" d="M82 428v207h422v428h221v-428h422v-207h-422v-428h-221v428h-422z" />
<glyph unicode="," horiz-adv-x="569" d="M123 0v319h323v-260q0 -179 -78.5 -276t-244.5 -123v143q72 22 106 68.5t39 128.5h-145z" />
<glyph unicode="-" horiz-adv-x="833" d="M109 428v260h616v-260h-616z" />
<glyph unicode="." horiz-adv-x="569" d="M123 0v319h323v-319h-323z" />
<glyph unicode="/" horiz-adv-x="759" d="M-27 -35l559 1528h250l-557 -1528h-252z" />
<glyph unicode="0" d="M43 707q0 107 15.5 206.5t53.5 197.5t96.5 170t151.5 116.5t211 44.5q100 0 181.5 -30.5t138 -85.5t97.5 -124.5t64 -154.5t33.5 -168t10.5 -172q0 -341 -139.5 -536.5t-383.5 -195.5q-249 0 -389.5 194t-140.5 538zM330 692q0 -245 59 -363t182 -118q238 0 238 496 q0 257 -58 376t-182 119q-39 0 -71.5 -12.5t-55.5 -31.5t-41.5 -51.5t-30 -60.5t-20 -72t-12 -73.5t-6 -76.5t-2.5 -69v-63z" />
<glyph unicode="1" d="M154 932v215h36q325 0 381 287h240v-1434h-309v932h-348z" />
<glyph unicode="2" d="M31 0q1 70 13.5 131t30 108t52 94.5t63.5 80t83 75t92 69.5t106 73q16 11 56 37t61.5 41t56.5 41.5t54.5 49t40.5 52.5t30.5 63.5t9.5 69.5q0 94 -56.5 150.5t-148.5 56.5q-114 0 -170.5 -76t-62.5 -235h-279v30q0 244 142 388.5t381 144.5q217 0 352 -121.5t135 -316.5 q0 -67 -15.5 -125t-39 -99.5t-65.5 -84.5t-79.5 -72t-97.5 -70q-20 -14 -75.5 -50.5t-87.5 -59t-76.5 -56.5t-77.5 -68t-56 -69h678v-252h-1050z" />
<glyph unicode="3" d="M29 473v21h280q2 -132 64.5 -203.5t179.5 -71.5q107 0 172.5 60t65.5 157q0 58 -21 100.5t-58.5 66.5t-82.5 35t-99 11q-42 0 -71 -2v205q23 -2 49 -2q250 0 250 180q0 82 -54.5 131t-144.5 49q-102 0 -158 -63t-59 -182h-276q8 223 138.5 351t356.5 128 q212 0 344.5 -109t132.5 -284q0 -105 -54 -181.5t-146 -101.5q120 -29 187 -116.5t67 -213.5q0 -204 -149 -334.5t-384 -130.5q-244 0 -387 135t-143 365z" />
<glyph unicode="4" d="M27 330v268l622 840h262v-867h193v-241h-193v-330h-270v330h-614zM260 571h381v533z" />
<glyph unicode="5" d="M23 424h286q9 -94 74 -152.5t162 -58.5q109 0 178.5 76.5t69.5 197.5t-68 193t-182 72q-72 0 -123 -28t-92 -91h-260l139 788h801v-247h-588l-55 -312q53 53 115.5 77t148.5 24q206 0 331 -128.5t125 -340.5q0 -226 -152 -371.5t-388 -145.5q-225 0 -367.5 116.5 t-154.5 330.5z" />
<glyph unicode="6" d="M49 686q0 353 149 555.5t410 202.5q194 0 316.5 -100.5t148.5 -282.5h-276q-41 162 -193 162q-120 0 -187.5 -105t-84.5 -321q118 161 319 161q196 0 322.5 -133t126.5 -340q1 -222 -143 -366t-367 -144q-255 0 -398 188t-143 523zM358 475q0 -117 64 -190.5t164 -73.5 t165.5 75.5t65.5 190.5t-66 189.5t-167 74.5q-98 0 -162 -75t-64 -191z" />
<glyph unicode="7" d="M76 1159v262h979v-239q-238 -260 -345 -535.5t-128 -646.5h-301q0 167 66.5 390.5t178 433.5t234.5 335h-684z" />
<glyph unicode="8" d="M31 412q0 134 71 226.5t197 123.5q-101 34 -156 111t-55 186q0 167 137 277t344 110q209 0 345.5 -110t136.5 -277q0 -109 -54 -186t-155 -111q126 -31 197 -123.5t71 -226.5q0 -197 -148.5 -317t-392.5 -120t-391 120t-147 317zM322 430q0 -104 68.5 -168.5t178.5 -64.5 q113 0 181.5 63.5t68.5 167.5q0 103 -70.5 166t-185.5 63q-106 0 -173.5 -63.5t-67.5 -163.5zM354 1040q0 -88 59.5 -140t157.5 -52q100 0 158.5 52t58.5 140q0 87 -58.5 137t-160.5 50q-97 0 -156 -51t-59 -136z" />
<glyph unicode="9" d="M35 934q0 220 147.5 366t368.5 146q116 0 208.5 -40.5t152.5 -107t99.5 -158t56.5 -189t17 -203.5q0 -110 -16.5 -214t-57.5 -207t-102.5 -180t-158.5 -124.5t-218 -47.5q-196 0 -323.5 104t-149.5 281h277q34 -163 196 -163q51 0 92 19.5t68.5 55.5t46.5 76t30.5 93.5 t17.5 94.5t10 91q-60 -85 -132.5 -125.5t-175.5 -40.5q-198 0 -326 133.5t-128 339.5zM319 944q0 -114 64 -188t164 -74q98 0 162.5 73.5t64.5 186.5q0 114 -65.5 189t-163.5 75q-97 0 -161.5 -75t-64.5 -187z" />
<glyph unicode=":" horiz-adv-x="569" d="M123 0v319h323v-319h-323zM123 723v319h323v-319h-323z" />
<glyph unicode=";" horiz-adv-x="569" d="M121 723v319h323v-319h-323zM125 0v319h324v-260q0 -178 -79 -275.5t-245 -123.5v143q72 22 106 68.5t39 128.5h-145z" />
<glyph unicode="&#x3c;" horiz-adv-x="1228" d="M82 424v215l1065 410v-250l-741 -267l741 -266v-254z" />
<glyph unicode="=" horiz-adv-x="1228" d="M82 203v229h1065v-229h-1065zM82 631v229h1065v-229h-1065z" />
<glyph unicode="&#x3e;" horiz-adv-x="1228" d="M82 12v254l741 266l-741 267v250l1065 -410v-215z" />
<glyph unicode="?" d="M63 987q14 235 145.5 368.5t371.5 133.5q218 0 351.5 -115.5t133.5 -304.5q0 -81 -32 -151t-79.5 -118.5t-119.5 -97.5q-91 -62 -117.5 -110t-26.5 -154h-272q0 60 1.5 94t9 76.5t22.5 72.5t41.5 64.5t66.5 69.5q14 12 51.5 42t55 46.5t42 45t34.5 59.5t10 67 q0 74 -49 119t-128 45q-206 0 -213 -252h-299zM393 0v313h318v-313h-318z" />
<glyph unicode="@" horiz-adv-x="1638" d="M61 709q0 163 64 308.5t173.5 249.5t262 165t324.5 61q201 0 358.5 -78t245.5 -218t88 -318q0 -140 -58.5 -265t-156.5 -199.5t-207 -74.5q-80 0 -127 40t-47 109q0 25 4 41q-45 -88 -117 -139t-166 -51q-124 0 -201 86.5t-77 226.5q0 130 57 245t152 183t203 68 q168 0 231 -139l29 106h174l-133 -457q-21 -77 -21 -110q0 -38 22 -60t62 -22q65 0 126 60.5t98.5 159t37.5 202.5q0 221 -159.5 359t-415.5 138q-201 0 -364 -88.5t-255 -245t-92 -350.5q0 -183 87 -327.5t243 -224.5t354 -80q152 0 286 46.5t275 149.5l60 -82 q-159 -116 -306.5 -167.5t-320.5 -51.5q-343 0 -561 203q-112 102 -172 243t-60 298zM629 643q0 -83 34 -129.5t95 -46.5q56 0 104.5 48.5t78 118t46.5 138t17 117.5q0 59 -33.5 97t-91.5 38q-56 0 -105 -41.5t-79.5 -102.5t-48 -124.5t-17.5 -112.5z" />
<glyph unicode="A" horiz-adv-x="1402" d="M-18 0l555 1460h329l555 -1460h-336l-114 326h-543l-119 -326h-327zM506 559h387l-193 543z" />
<glyph unicode="B" horiz-adv-x="1441" d="M139 0v1458h690q99 0 181.5 -21.5t147 -64.5t100.5 -114.5t36 -165.5q0 -103 -53 -181.5t-145 -119.5q122 -34 194 -123t72 -234q0 -138 -67 -238t-177 -148t-250 -48h-729zM451 254h321q46 0 81.5 4t72.5 16.5t61 34t39.5 58t15.5 86.5q0 51 -16.5 88t-42 58t-65.5 33 t-76.5 15.5t-85.5 3.5h-305v-397zM451 868h290q50 0 88 6.5t75.5 23t58 52t20.5 88.5t-19.5 88.5t-56 53t-75.5 24t-91 6.5h-290v-342z" />
<glyph unicode="C" horiz-adv-x="1517" d="M86 731q0 213 85 385t250 274.5t382 102.5q261 0 436.5 -147t194.5 -375h-314q-25 120 -109.5 187t-213.5 67q-82 0 -148.5 -28.5t-110.5 -76t-74 -112t-43 -134t-13 -145.5q0 -226 104 -359.5t281 -133.5q144 0 228.5 83.5t104.5 243.5h318q-26 -275 -193.5 -436.5 t-459.5 -161.5q-318 0 -511.5 210t-193.5 556z" />
<glyph unicode="D" horiz-adv-x="1517" d="M143 0v1458h590q340 0 523.5 -188t183.5 -541q0 -351 -183.5 -540t-523.5 -189h-590zM461 266h233q215 0 319.5 119t104.5 344q0 224 -105.5 343.5t-318.5 119.5h-233v-926z" />
<glyph unicode="E" horiz-adv-x="1327" d="M141 0v1458h1094v-262h-776v-317h712v-252h-712v-359h790v-268h-1108z" />
<glyph unicode="F" horiz-adv-x="1214" d="M141 0v1458h1028v-268h-708v-338h616v-254h-616v-598h-320z" />
<glyph unicode="G" horiz-adv-x="1554" d="M82 723q0 167 53 309.5t147 243t227.5 157t289.5 56.5q250 0 421.5 -140t200.5 -370h-309q-23 115 -106 178.5t-211 63.5q-183 0 -287.5 -132.5t-104.5 -365.5q0 -238 106 -370t296 -132q151 0 246.5 91t101.5 239h-326v237h613v-788h-203l-31 166q-85 -103 -191 -152 t-247 -49q-201 0 -357 95.5t-242.5 268t-86.5 394.5z" />
<glyph unicode="H" horiz-adv-x="1517" d="M141 0v1458h320v-549h596v549h319v-1458h-319v629h-596v-629h-320z" />
<glyph unicode="I" horiz-adv-x="604" d="M141 0v1458h322v-1458h-322z" />
<glyph unicode="J" d="M53 449v96h295v-45q0 -34 0.5 -51.5t2.5 -48.5t7 -48t13 -40.5t21.5 -37t32 -26.5t45.5 -19t60 -6q46 0 79 14t50.5 34t27 55.5t11.5 65t2 75.5v991h320v-1001q0 -241 -120 -366.5t-359 -125.5q-231 0 -359.5 120.5t-128.5 363.5z" />
<glyph unicode="K" horiz-adv-x="1478" d="M145 0v1458h316v-606l573 606h404l-572 -575l625 -883h-401l-443 655l-186 -184v-471h-316z" />
<glyph unicode="L" horiz-adv-x="1214" d="M141 0v1458h320v-1184h713v-274h-1033z" />
<glyph unicode="M" horiz-adv-x="1857" d="M141 0v1458h457l340 -1001l332 1001h446v-1458h-301v1036l-358 -1036h-248l-363 1026v-1026h-305z" />
<glyph unicode="N" horiz-adv-x="1517" d="M141 0v1458h326l600 -977v977h307v-1458h-319l-604 979v-979h-310z" />
<glyph unicode="O" horiz-adv-x="1593" d="M78 727q0 347 198 556.5t525 209.5q211 0 373.5 -95.5t252 -270t89.5 -400.5q0 -225 -89.5 -398.5t-252.5 -268.5t-375 -95q-160 0 -294.5 55t-228.5 154t-146 241.5t-52 311.5zM401 733q0 -234 107 -368t293 -136q181 0 286 135.5t105 368.5q0 230 -106 364t-289 134 q-181 0 -288.5 -135.5t-107.5 -362.5z" />
<glyph unicode="P" horiz-adv-x="1366" d="M143 0v1458h629q246 0 390.5 -118t144.5 -351q0 -154 -69.5 -260.5t-184.5 -155.5t-265 -49h-327v-524h-318zM461 776h284q118 0 184 47.5t66 161.5q0 111 -66.5 161t-180.5 50h-287v-420z" />
<glyph unicode="Q" horiz-adv-x="1593" d="M78 725q0 223 91.5 397.5t256 271.5t375.5 97q206 0 368 -96.5t252 -269t90 -392.5q0 -171 -51.5 -314.5t-144.5 -230.5l188 -172l-149 -161l-215 194q-133 -84 -353 -84q-317 0 -512.5 209t-195.5 551zM399 727q0 -230 107 -368t287 -138q71 0 139 29l-146 127l150 160 l158 -144q98 118 98 338q0 229 -106.5 362.5t-290.5 133.5q-181 0 -288.5 -135.5t-107.5 -364.5z" />
<glyph unicode="R" horiz-adv-x="1478" d="M154 0v1458h725q103 0 190 -24t155.5 -72.5t107 -129.5t38.5 -188q0 -127 -61 -222t-170 -136q190 -39 215 -340q1 -11 4.5 -64t7 -84.5t10.5 -77t19 -75.5t28 -45h-331q-17 33 -25.5 82t-13.5 130.5t-6 86.5q-15 154 -76 213t-215 59h-285v-571h-317zM471 803h303 q50 0 87.5 4t76 17t63.5 35t40.5 60.5t15.5 90.5q0 49 -15.5 85t-40 57t-61 33.5t-72 16.5t-80.5 4h-317v-403z" />
<glyph unicode="S" horiz-adv-x="1329" d="M45 487h317q8 -274 330 -274q126 0 198.5 52t72.5 143q0 75 -65 110t-278 95q-37 10 -57 16q-181 52 -251 85q-152 73 -195 204q-19 60 -19 135q0 198 153 317t408 119q118 0 217 -27.5t176.5 -82.5t122 -145.5t46.5 -209.5h-303q-9 106 -79.5 161.5t-197.5 55.5 q-110 0 -172.5 -44t-62.5 -122q0 -27 8.5 -47.5t30 -37.5t44 -28.5t66.5 -25t80 -23t101.5 -26.5t115.5 -31q105 -30 177.5 -63t131.5 -81.5t88 -116.5t29 -157q0 -100 -34 -181t-91.5 -134t-135.5 -89t-162.5 -51.5t-176.5 -15.5q-297 0 -463.5 136.5t-169.5 383.5z" />
<glyph unicode="T" horiz-adv-x="1251" d="M27 1186v272h1198v-272h-439v-1186h-321v1186h-438z" />
<glyph unicode="U" horiz-adv-x="1517" d="M133 586v872h320v-872q0 -88 14 -149.5t48.5 -108.5t96.5 -69.5t154 -22.5q90 0 150 23.5t91.5 72t43.5 108t12 146.5v872h319v-876q0 -313 -150.5 -462t-469.5 -149q-324 0 -476.5 150.5t-152.5 464.5z" />
<glyph unicode="V" horiz-adv-x="1290" d="M-16 1458h333l328 -1024l332 1024h332l-486 -1458h-362z" />
<glyph unicode="W" horiz-adv-x="1933" d="M6 1458h322l233 -991l256 991h301l252 -1003l242 1003h315l-393 -1458h-320l-249 995l-246 -995h-326z" />
<glyph unicode="X" horiz-adv-x="1366" d="M-14 0l514 762l-475 696h372l291 -469l293 469h352l-469 -696l512 -762h-383l-319 506l-324 -506h-364z" />
<glyph unicode="Y" horiz-adv-x="1366" d="M-18 1458h364l340 -584l344 584h354l-542 -897v-561h-316v567z" />
<glyph unicode="Z" horiz-adv-x="1327" d="M41 0v260l784 926h-729v272h1153v-244l-790 -940h817v-274h-1235z" />
<glyph unicode="[" horiz-adv-x="681" d="M143 -352v1820h531v-223h-262v-1374h262v-223h-531z" />
<glyph unicode="\" horiz-adv-x="759" d="M-18 1493h249l560 -1528h-252z" />
<glyph unicode="]" horiz-adv-x="681" d="M8 -129h262v1374h-262v223h531v-1820h-531v223z" />
<glyph unicode="^" horiz-adv-x="1228" d="M137 549l361 872h233l361 -872h-244l-240 590l-227 -590h-244z" />
<glyph unicode="_" horiz-adv-x="1024" d="M0 -154h1024v-102h-1024v102z" />
<glyph unicode="`" horiz-adv-x="530" d="M-98 1479h325l193 -293h-207z" />
<glyph unicode="a" horiz-adv-x="1175" d="M59 289q0 57 16 104t38 78.5t63 57t73.5 39.5t89 26.5t89 17.5t92.5 13q153 20 205.5 43t52.5 84q0 72 -46.5 106.5t-143.5 34.5q-100 0 -147 -36t-62 -126h-273q12 176 136.5 266t353.5 90q71 0 130.5 -7t123 -29.5t107 -59t72 -100t28.5 -148.5v-456q0 -71 1 -102 t9.5 -87t26.5 -98h-295q-16 45 -21 102q-133 -133 -342 -133q-175 0 -276 85.5t-101 234.5zM358 301q0 -66 42.5 -103.5t117.5 -37.5q117 0 187.5 61.5t70.5 173.5v119q-20 -11 -39 -19t-43 -14t-36.5 -8.5t-45 -7.5t-41.5 -6q-103 -17 -140 -35q-73 -36 -73 -123z" />
<glyph unicode="b" horiz-adv-x="1251" d="M109 0v1458h288v-530q124 153 334 153q141 0 245.5 -73.5t156 -195t51.5 -273.5q0 -253 -130 -410.5t-339 -157.5q-220 0 -332 162l2 -133h-276zM387 535q0 -154 68 -242t186 -88q114 0 182 90.5t68 241.5q0 146 -68 233.5t-182 87.5q-117 0 -185.5 -87t-68.5 -236z" />
<glyph unicode="c" horiz-adv-x="1175" d="M74 520q0 257 148 412t394 155q212 0 344.5 -107t151.5 -292h-285q-15 87 -69.5 134.5t-139.5 47.5q-119 0 -185 -90.5t-66 -253.5q0 -158 64 -244.5t181 -86.5q94 0 151.5 54.5t74.5 158.5h280q-28 -205 -161.5 -320t-344.5 -115q-244 0 -391 149.5t-147 397.5z" />
<glyph unicode="d" horiz-adv-x="1251" d="M68 532q0 251 126 402t336 151q99 0 186 -40.5t136 -118.5v532h289v-1458h-275v135q-105 -164 -319 -164q-220 0 -349.5 152t-129.5 409zM360 532q0 -154 66.5 -240.5t183.5 -86.5q120 0 186 85t66 240q0 154 -66.5 240t-185.5 86q-118 0 -184 -85.5t-66 -238.5z" />
<glyph unicode="e" horiz-adv-x="1175" d="M68 522q0 246 150 405.5t380 159.5q240 0 381 -163t141 -441v-28h-758q3 -136 67 -208.5t181 -72.5q79 0 131 37t84 117h279q-49 -170 -181.5 -264.5t-314.5 -94.5q-244 0 -392 152t-148 401zM362 639h463q-10 104 -67 171t-160 67q-97 0 -160.5 -64t-75.5 -174z" />
<glyph unicode="f" horiz-adv-x="681" d="M0 860v197h172v55q0 185 83.5 268.5t279.5 83.5q23 0 48 -1t55.5 -2.5t47.5 -2.5v-213q-90 4 -96 4q-78 0 -103.5 -21t-25.5 -87v-84h207v-197h-205v-860h-291v860h-172z" />
<glyph unicode="g" horiz-adv-x="1251" d="M72 551q0 241 127 387.5t336 146.5q109 0 182.5 -40t132.5 -130v142h274v-946q0 -261 -129 -382.5t-391 -121.5q-452 0 -495 330h288q17 -71 67.5 -103.5t145.5 -32.5q71 0 118 18t71.5 56.5t34 85t10.5 115.5l2 119q-118 -164 -324 -164t-328 141t-122 379zM358 553 q0 -140 66 -222.5t180 -82.5q113 0 178.5 83.5t65.5 227.5q0 141 -65.5 221t-180.5 80t-179.5 -81t-64.5 -226z" />
<glyph unicode="h" horiz-adv-x="1214" d="M113 0v1458h286v-543q125 168 334 168q371 0 371 -391v-692h-291v623q0 109 -39 166t-147 57q-56 0 -97.5 -17.5t-66 -45t-39.5 -69.5t-20 -83t-5 -92v-539h-286z" />
<glyph unicode="i" horiz-adv-x="528" d="M119 0v1057h291v-1057h-291zM119 1212v246h291v-246h-291z" />
<glyph unicode="j" horiz-adv-x="569" d="M-39 -145q25 -2 53 -2q37 0 60.5 7t36.5 16t19.5 32t7.5 41.5t1 56.5v1051h291v-1059q0 -105 -16 -173.5t-55.5 -117t-107.5 -69.5t-173 -21q-58 0 -117 4v234zM139 1208v250h291v-250h-291z" />
<glyph unicode="k" horiz-adv-x="1175" d="M137 0v1458h285v-780l373 379h342l-398 -391l445 -666h-353l-290 469l-119 -111v-358h-285z" />
<glyph unicode="l" horiz-adv-x="528" d="M119 0v1458h291v-1458h-291z" />
<glyph unicode="m" horiz-adv-x="1855" d="M121 0v1057h276v-146q124 174 336 174q220 0 299 -174q127 174 346 174q175 0 268 -100.5t93 -273.5v-711h-295v631q0 50 -5.5 84t-22 67t-51.5 49.5t-89 16.5q-203 0 -203 -254v-594h-291v643q0 47 -6 80.5t-22 64.5t-49 46.5t-82 15.5q-211 0 -211 -277v-573h-291z" />
<glyph unicode="n" horiz-adv-x="1214" d="M113 0v1057h276v-148q131 176 350 176q170 0 268.5 -98t98.5 -280v-707h-295v616q0 43 -3.5 74.5t-15 62.5t-31 50t-52 31t-78.5 12q-122 0 -176 -76t-54 -203v-567h-288z" />
<glyph unicode="o" horiz-adv-x="1251" d="M80 528q0 252 151 405.5t400 153.5q244 0 392 -153.5t148 -405.5q0 -255 -148.5 -408t-395.5 -153t-397 153.5t-150 407.5zM371 528q0 -163 67 -252.5t189 -89.5q120 0 187 90.5t67 253.5q0 158 -68 247t-190 89q-117 0 -184.5 -90t-67.5 -248z" />
<glyph unicode="p" horiz-adv-x="1251" d="M111 -375v1432h274v-131q114 159 328 159t342.5 -154t128.5 -409q0 -249 -126 -399t-333 -150q-213 0 -326 158v-506h-288zM389 526q0 -154 67 -239.5t187 -85.5q117 0 183.5 85t66.5 236q0 155 -67.5 242.5t-184.5 87.5q-119 0 -185.5 -86t-66.5 -240z" />
<glyph unicode="q" horiz-adv-x="1251" d="M68 522q0 256 129 409.5t344 153.5q220 0 325 -159v131h277v-1432h-289v508q-117 -160 -326 -160q-211 0 -335.5 149t-124.5 400zM360 520q0 -151 66 -235t184 -84q119 0 185.5 86.5t66.5 242.5q0 154 -67.5 239t-190.5 85q-114 0 -179 -89.5t-65 -244.5z" />
<glyph unicode="r" horiz-adv-x="796" d="M115 0v1057h276v-195q50 104 137.5 161.5t204.5 57.5q21 0 64 -6v-268q-61 12 -113 12q-73 0 -127.5 -25t-87 -71t-48 -105.5t-15.5 -134.5v-483h-291z" />
<glyph unicode="s" horiz-adv-x="1099" d="M59 344h277q14 -176 225 -176q89 0 141 35.5t52 95.5q0 25 -10.5 44.5t-26 32t-46.5 23.5t-59.5 18.5t-77.5 18.5q-12 3 -18 4q-160 37 -174 40q-167 48 -224 142q-36 59 -36 142q0 155 120.5 239t342.5 84q94 0 173 -18.5t143.5 -57t102 -105.5t40.5 -156h-271 q-12 80 -60.5 112.5t-140.5 32.5q-77 0 -120 -27.5t-43 -76.5q0 -20 5.5 -36t21.5 -28t30.5 -20t47 -17t54.5 -14t70 -15q19 -4 29 -6q53 -11 83.5 -18t80 -22t79 -30t65.5 -40t55.5 -54t33.5 -71t14 -92q0 -166 -129 -262.5t-354 -96.5q-102 0 -188.5 21t-156 64.5 t-110 117.5t-41.5 172z" />
<glyph unicode="t" horiz-adv-x="720" d="M12 860v197h176v319h289v-319h215v-197h-215v-498q0 -31 0.5 -47t4.5 -36.5t12 -30t21.5 -19t35.5 -13t53 -3.5q53 0 88 4v-221q-107 -8 -176 -8q-97 0 -157 14t-100 51t-55.5 98t-15.5 160v549h-176z" />
<glyph unicode="u" horiz-adv-x="1214" d="M113 346v711h293v-604q0 -47 2.5 -77t12.5 -64t28.5 -53.5t52.5 -32.5t82 -13q229 0 229 299v545h289v-1057h-277v150q-124 -181 -344 -181q-174 0 -271 96t-97 281z" />
<glyph unicode="v" horiz-adv-x="1064" d="M10 1057h307l226 -721l225 721h289l-359 -1057h-325z" />
<glyph unicode="w" horiz-adv-x="1667" d="M10 1057h309l197 -719l178 719h281l184 -715l197 715h297l-334 -1057h-299l-189 711l-182 -711h-301z" />
<glyph unicode="x" horiz-adv-x="1099" d="M-4 0l385 557l-350 500h331l189 -283l186 283h322l-348 -494l391 -563h-332l-223 342l-221 -342h-330z" />
<glyph unicode="y" horiz-adv-x="1062" d="M-18 1057h313l242 -719l233 719h301l-389 -1053q-61 -164 -93 -220q-63 -108 -167 -142q-60 -19 -143 -19q-54 0 -195 2v240h141q71 0 109.5 37t38.5 104q0 17 -8 41z" />
<glyph unicode="z" horiz-adv-x="1062" d="M45 0v221l559 613h-516v223h893v-211l-557 -617h594v-229h-973z" />
<glyph unicode="{" horiz-adv-x="681" d="M-2 494v131q122 13 164.5 70.5t42.5 187.5v110q0 255 103.5 358.5t367.5 118.5v-131q-121 -12 -162 -74.5t-41 -207.5v-117q0 -176 -68.5 -267t-236.5 -114q89 -8 150 -39.5t94 -84t47 -114t14 -143.5v-119q0 -70 6.5 -113.5t27 -82t62 -58.5t107.5 -26v-129 q-263 12 -367 115.5t-104 357.5v74q0 49 -1 77.5t-5 62t-12.5 52.5t-23.5 39.5t-37 31.5t-53.5 20t-74.5 14z" />
<glyph unicode="|" horiz-adv-x="456" d="M104 -438v2048h248v-2048h-248z" />
<glyph unicode="}" horiz-adv-x="681" d="M-2 -221q66 6 107.5 26t62 58.5t27 82t6.5 113.5v119q0 82 14 143.5t47 114t94 84t150 39.5q-168 23 -236.5 114t-68.5 267v117q0 145 -41 207.5t-162 74.5v131q264 -15 367.5 -118.5t103.5 -358.5v-110q0 -130 42.5 -187.5t164.5 -70.5v-131q-43 -5 -74.5 -14t-53.5 -20 t-37 -31.5t-23.5 -39.5t-12.5 -52.5t-5 -62t-1 -77.5v-74q0 -254 -104 -357.5t-367 -115.5v129z" />
<glyph unicode="~" horiz-adv-x="1228" d="M55 348q5 54 17 103.5t36 98.5t57.5 84t84 57t112.5 22q33 0 72.5 -8t65 -15.5t74 -24t65.5 -22.5q7 -2 44 -15t56.5 -19.5t52 -15.5t58 -13.5t45.5 -4.5q99 0 123 138h160q-8 -75 -27.5 -135.5t-54.5 -114t-94 -83.5t-138 -30q-44 0 -106.5 14.5t-105.5 28.5 t-121.5 42.5t-98.5 35.5q-68 21 -92 21q-53 0 -84.5 -43.5t-40.5 -100.5h-160z" />
<glyph unicode="&#xa3;" d="M37 635v168h131q-88 125 -88 258q0 186 141.5 301t370.5 115q242 0 375 -128.5t139 -367.5h-287q-1 124 -58.5 189t-164.5 65q-88 0 -145.5 -53t-57.5 -135q0 -47 29 -121t61 -123h273v-168h-217q22 -75 22 -113q0 -90 -44.5 -155.5t-129.5 -139.5q93 43 184 43 q57 0 144 -20q97 -25 131 -25q111 0 188 86l123 -211q-127 -127 -330 -127q-19 0 -37 1t-31 2t-31 4.5t-27 5t-29 7t-27 7.5t-32 9.5t-33 10.5q-122 33 -185 33q-56 0 -104.5 -18t-114.5 -64l-125 187q5 5 32.5 27t34 27.5t29.5 26.5t30 29.5t25.5 28.5t24.5 32.5t17.5 33.5 t15.5 39t8 40.5t4 46.5q0 72 -34 146h-201z" />
<glyph unicode="&#xa4;" d="M66 354l135 135q-74 118 -74 244q0 128 74 244l-135 135l124 125l136 -135q117 74 243 74q118 0 246 -74l133 135l125 -125l-135 -135q74 -104 74 -246q0 -125 -74 -242l135 -135l-125 -125l-137 136q-112 -74 -240 -74q-133 0 -243 74l-138 -136zM356 733 q0 -89 62.5 -151t150.5 -62t150.5 62t62.5 151q0 88 -62.5 150.5t-150.5 62.5q-89 0 -151 -62.5t-62 -150.5z" />
<glyph unicode="&#xa6;" horiz-adv-x="456" d="M119 -182v512h219v-512h-219zM119 842v512h219v-512h-219z" />
<glyph unicode="&#xa7;" d="M23 639q0 108 58.5 185t160.5 110q-88 92 -88 207q0 151 121 247.5t311 96.5t307 -106t119 -279h-258q-6 82 -49.5 125t-120.5 43q-67 0 -109.5 -34.5t-42.5 -90.5q0 -15 2.5 -27t5.5 -22.5t12.5 -21t17 -18.5t25 -19.5t30.5 -19.5t40 -22.5t47.5 -25t59 -30t67.5 -34.5 q15 -8 50.5 -26t53.5 -27t51 -27.5t51.5 -31.5t46 -33.5t43 -38t34 -42t28.5 -49t16.5 -54.5t6.5 -62q0 -101 -57.5 -181.5t-155.5 -115.5q111 -100 111 -233q0 -161 -123.5 -263t-319.5 -102q-212 0 -332 108.5t-122 299.5h260q13 -183 194 -183q74 0 118 37t44 98 q0 67 -69 117.5t-279 153.5q-145 72 -195 105q-148 98 -168 237q-3 23 -3 49zM274 666q0 -28 10.5 -50.5t36.5 -42t38.5 -27t48.5 -26.5l348 -180q49 4 79.5 39t30.5 86q0 29 -9.5 52t-30.5 41.5t-38 29t-47 26.5l-356 187q-52 -15 -81.5 -51t-29.5 -84z" />
<glyph unicode="&#xa9;" horiz-adv-x="1638" d="M39 731q0 208 102.5 384t279 279t384.5 103q156 0 298.5 -61t245 -163.5t163.5 -244.5t61 -297q0 -208 -103 -384.5t-279 -279t-384 -102.5q-209 0 -385.5 102.5t-279.5 279t-103 384.5zM172 731q0 -129 50 -246t135 -202t202 -135t246 -50t246.5 50t202.5 135t135.5 202 t50.5 246t-50.5 246t-135.5 202t-202.5 135t-246.5 50t-246 -50t-202 -135t-135 -202t-50 -246zM397 731q0 201 114.5 329t295.5 128q158 0 265 -93t118 -239h-189q-12 76 -60 119t-122 43q-89 0 -140.5 -75.5t-51.5 -207.5q0 -134 53.5 -209t150.5 -75q76 0 116.5 39 t56.5 116h188q-17 -146 -118.5 -235.5t-250.5 -89.5q-184 0 -305 128t-121 322z" />
<glyph unicode="&#xab;" horiz-adv-x="909" d="M86 410v268l324 252v-242l-185 -141l185 -146v-249zM489 406v272l320 252v-246l-180 -141l180 -142v-247z" />
<glyph unicode="&#xac;" horiz-adv-x="1228" d="M82 631v229h1065v-657h-232v428h-833z" />
<glyph unicode="&#xad;" horiz-adv-x="833" d="M109 428v260h616v-260h-616z" />
<glyph unicode="&#xae;" horiz-adv-x="819" d="M27 1112q0 158 111.5 269.5t269.5 111.5t270.5 -111.5t112.5 -269.5t-112.5 -270.5t-270.5 -112.5t-269.5 112.5t-111.5 270.5zM92 1112q0 -130 92.5 -222.5t223.5 -92.5q130 0 222.5 92.5t92.5 222.5t-92.5 222.5t-222.5 92.5q-131 0 -223.5 -92.5t-92.5 -222.5z M248 901v424h151q189 0 189 -125q0 -74 -78 -100q42 -17 56.5 -45.5t15.5 -96.5q0 -32 10 -57h-98q-9 19 -11 60q-2 62 -19 80t-75 18h-41v-158h-100zM348 1137h47q50 0 71 12.5t21 42.5q0 29 -21.5 42t-70.5 13h-47v-110z" />
<glyph unicode="&#xb0;" horiz-adv-x="819" d="M76 1108q0 138 98 236t236 98t235.5 -98t97.5 -236t-97.5 -236t-235.5 -98t-236 98t-98 236zM262 1108q0 -61 43 -104t105 -43t104.5 42.5t42.5 104.5t-43 105.5t-104 43.5t-104.5 -43.5t-43.5 -105.5z" />
<glyph unicode="&#xb1;" horiz-adv-x="1228" d="M82 -35v228h1065v-228h-1065zM82 553v227h412v318h241v-318h412v-227h-412v-311h-241v311h-412z" />
<glyph unicode="&#xb5;" horiz-adv-x="1214" d="M117 -375v1432h289v-422q0 -14 -0.5 -52t-0.5 -57t1.5 -56t5 -57.5t10.5 -52t17 -49.5t25.5 -39.5t35.5 -33t47.5 -19.5t60.5 -8q45 0 80 19t56.5 54.5t36 75t21 92t9 93t2.5 88.5v424h289v-1057h-260v147q-50 -83 -100.5 -123t-123.5 -40q-74 0 -128 28t-99 88v-475 h-274z" />
<glyph unicode="&#xb6;" horiz-adv-x="1269" d="M49 961q0 162 70.5 276t188.5 167.5t274 53.5h612v-166h-111v-1667h-202v1667h-222v-1667h-202v881q-188 12 -298 136t-110 319z" />
<glyph unicode="&#xb7;" horiz-adv-x="569" d="M123 428v320h323v-320h-323z" />
<glyph unicode="&#xbb;" horiz-adv-x="909" d="M100 158v239l183 144l-183 141v250l320 -254v-270zM500 154v241l186 144l-186 147v248l323 -258v-270z" />
<glyph unicode="&#xf7;" horiz-adv-x="1228" d="M82 426v256h1065v-256h-1065zM487 16v275h254v-275h-254zM487 817v275h254v-275h-254z" />
<glyph unicode="&#x2000;" horiz-adv-x="808" />
<glyph unicode="&#x2001;" horiz-adv-x="1616" />
<glyph unicode="&#x2002;" horiz-adv-x="808" />
<glyph unicode="&#x2003;" horiz-adv-x="1616" />
<glyph unicode="&#x2004;" horiz-adv-x="538" />
<glyph unicode="&#x2005;" horiz-adv-x="404" />
<glyph unicode="&#x2006;" horiz-adv-x="269" />
<glyph unicode="&#x2007;" horiz-adv-x="269" />
<glyph unicode="&#x2008;" horiz-adv-x="202" />
<glyph unicode="&#x2009;" horiz-adv-x="323" />
<glyph unicode="&#x200a;" horiz-adv-x="89" />
<glyph unicode="&#x2010;" horiz-adv-x="833" d="M109 428v260h616v-260h-616z" />
<glyph unicode="&#x2011;" horiz-adv-x="833" d="M109 428v260h616v-260h-616z" />
<glyph unicode="&#x2012;" horiz-adv-x="833" d="M109 428v260h616v-260h-616z" />
<glyph unicode="&#x2013;" horiz-adv-x="1024" d="M0 428v258h1024v-258h-1024z" />
<glyph unicode="&#x2014;" horiz-adv-x="2048" d="M0 428v258h2048v-258h-2048z" />
<glyph unicode="&#x2018;" horiz-adv-x="569" d="M123 799v250q0 176 72.5 278.5t250.5 130.5v-143q-139 -39 -145 -197h145v-319h-323z" />
<glyph unicode="&#x2019;" horiz-adv-x="569" d="M123 799v143q139 39 145 197h-145v319h323v-250q0 -176 -72.5 -278.5t-250.5 -130.5z" />
<glyph unicode="&#x201a;" horiz-adv-x="569" d="M123 0v319h323v-249q0 -176 -72.5 -279t-250.5 -131v143q139 39 145 197h-145z" />
<glyph unicode="&#x201c;" horiz-adv-x="948" d="M109 809v256q0 156 72.5 262t219.5 131v-135q-73 -22 -103.5 -71.5t-33.5 -129.5h137v-313h-292zM543 809v256q0 156 73 262t220 131v-135q-73 -22 -104 -71.5t-34 -129.5h138v-313h-293z" />
<glyph unicode="&#x201d;" horiz-adv-x="948" d="M113 809v135q73 22 103.5 71.5t33.5 129.5h-137v313h293v-256q0 -156 -73 -262t-220 -131zM547 809v135q73 22 103.5 71.5t33.5 129.5h-137v313h293v-256q0 -156 -73 -262t-220 -131z" />
<glyph unicode="&#x201e;" horiz-adv-x="948" d="M111 2v313h292v-256q0 -156 -72.5 -262t-219.5 -131v135q73 22 103.5 71.5t33.5 129.5h-137zM545 2v313h293v-256q0 -156 -73 -262t-220 -131v135q73 22 103.5 71.5t33.5 129.5h-137z" />
<glyph unicode="&#x2022;" horiz-adv-x="1026" d="M150 729q0 151 106 258t258 107q151 0 258 -107t107 -258t-107 -257.5t-258 -106.5q-152 0 -258 106.5t-106 257.5z" />
<glyph unicode="&#x2026;" horiz-adv-x="2048" d="M205 0v274h272v-274h-272zM887 0v274h272v-274h-272zM1569 0v274h272v-274h-272z" />
<glyph unicode="&#x202f;" horiz-adv-x="323" />
<glyph unicode="&#x2039;" horiz-adv-x="493" d="M76 408v270l319 250v-244l-182 -141l182 -144v-247z" />
<glyph unicode="&#x203a;" horiz-adv-x="493" d="M96 156v239l183 146l-183 143v248l322 -254v-275z" />
<glyph unicode="&#x205f;" horiz-adv-x="404" />
<glyph unicode="&#x2122;" horiz-adv-x="2048" d="M219 1319v139h615v-139h-220v-590h-172v590h-223zM930 729v729h246l178 -502l178 502h242v-729h-158v594l-207 -594h-115l-207 594v-594h-157z" />
<glyph unicode="&#x25fc;" horiz-adv-x="1054" d="M0 0v1055h1055v-1055h-1055z" />
<hkern u1="A" u2="&#x2019;" k="152" />
<hkern u1="A" u2="y" k="37" />
<hkern u1="A" u2="w" k="37" />
<hkern u1="A" u2="v" k="37" />
<hkern u1="A" u2="Y" k="152" />
<hkern u1="A" u2="W" k="37" />
<hkern u1="A" u2="V" k="94" />
<hkern u1="A" u2="T" k="152" />
<hkern u1="F" u2="A" k="113" />
<hkern u1="F" u2="&#x2e;" k="264" />
<hkern u1="F" u2="&#x2c;" k="264" />
<hkern u1="L" u2="&#x2019;" k="152" />
<hkern u1="L" u2="y" k="76" />
<hkern u1="L" u2="Y" k="227" />
<hkern u1="L" u2="W" k="113" />
<hkern u1="L" u2="V" k="188" />
<hkern u1="L" u2="T" k="227" />
<hkern u1="P" u2="A" k="152" />
<hkern u1="P" u2="&#x2e;" k="264" />
<hkern u1="P" u2="&#x2c;" k="264" />
<hkern u1="R" u2="Y" k="76" />
<hkern u1="R" u2="W" k="-12" />
<hkern u1="R" u2="V" k="-12" />
<hkern u1="R" u2="T" k="37" />
<hkern u1="T" u2="y" k="188" />
<hkern u1="T" u2="w" k="227" />
<hkern u1="T" u2="u" k="188" />
<hkern u1="T" u2="s" k="227" />
<hkern u1="T" u2="r" k="188" />
<hkern u1="T" u2="o" k="227" />
<hkern u1="T" u2="e" k="227" />
<hkern u1="T" u2="c" k="227" />
<hkern u1="T" u2="a" k="227" />
<hkern u1="T" u2="A" k="152" />
<hkern u1="T" u2="&#x3b;" k="178" />
<hkern u1="T" u2="&#x3a;" k="178" />
<hkern u1="T" u2="&#x2e;" k="227" />
<hkern u1="T" u2="&#x2d;" k="264" />
<hkern u1="T" u2="&#x2c;" k="227" />
<hkern u1="V" u2="y" k="37" />
<hkern u1="V" u2="u" k="76" />
<hkern u1="V" u2="r" k="76" />
<hkern u1="V" u2="o" k="113" />
<hkern u1="V" u2="i" k="37" />
<hkern u1="V" u2="e" k="113" />
<hkern u1="V" u2="a" k="113" />
<hkern u1="V" u2="A" k="94" />
<hkern u1="V" u2="&#x3b;" k="102" />
<hkern u1="V" u2="&#x3a;" k="102" />
<hkern u1="V" u2="&#x2e;" k="264" />
<hkern u1="V" u2="&#x2d;" k="113" />
<hkern u1="V" u2="&#x2c;" k="264" />
<hkern u1="W" u2="u" k="37" />
<hkern u1="W" u2="r" k="37" />
<hkern u1="W" u2="o" k="76" />
<hkern u1="W" u2="e" k="76" />
<hkern u1="W" u2="a" k="76" />
<hkern u1="W" u2="A" k="37" />
<hkern u1="W" u2="&#x3b;" k="37" />
<hkern u1="W" u2="&#x3a;" k="37" />
<hkern u1="W" u2="&#x2e;" k="152" />
<hkern u1="W" u2="&#x2c;" k="152" />
<hkern u1="Y" u2="v" k="113" />
<hkern u1="Y" u2="u" k="152" />
<hkern u1="Y" u2="q" k="188" />
<hkern u1="Y" u2="p" k="152" />
<hkern u1="Y" u2="o" k="188" />
<hkern u1="Y" u2="i" k="27" />
<hkern u1="Y" u2="e" k="188" />
<hkern u1="Y" u2="a" k="188" />
<hkern u1="Y" u2="A" k="152" />
<hkern u1="Y" u2="&#x3b;" k="139" />
<hkern u1="Y" u2="&#x3a;" k="164" />
<hkern u1="Y" u2="&#x2e;" k="227" />
<hkern u1="Y" u2="&#x2d;" k="227" />
<hkern u1="Y" u2="&#x2c;" k="227" />
<hkern u1="f" u2="&#x2019;" k="-37" />
<hkern u1="f" u2="f" k="37" />
<hkern u1="r" u2="q" k="37" />
<hkern u1="r" u2="o" k="37" />
<hkern u1="r" u2="n" k="-37" />
<hkern u1="r" u2="e" k="37" />
<hkern u1="r" u2="d" k="37" />
<hkern u1="r" u2="c" k="37" />
<hkern u1="r" u2="&#x2e;" k="188" />
<hkern u1="r" u2="&#x2d;" k="113" />
<hkern u1="r" u2="&#x2c;" k="188" />
<hkern u1="v" u2="&#x2e;" k="113" />
<hkern u1="v" u2="&#x2c;" k="113" />
<hkern u1="w" u2="&#x2e;" k="113" />
<hkern u1="w" u2="&#x2c;" k="113" />
<hkern u1="y" u2="&#x2e;" k="113" />
<hkern u1="y" u2="&#x2c;" k="113" />
<hkern u1="&#x2018;" u2="&#x2018;" k="133" />
<hkern u1="&#x2019;" u2="&#x2019;" k="133" />
<hkern u1="&#x2019;" u2="t" k="37" />
<hkern u1="&#x2019;" u2="s" k="152" />
</font>
</defs></svg> 