<?xml version="1.0" encoding="UTF-8"?>
<!DOCTYPE svg PUBLIC "-//W3C//DTD SVG 1.1//EN" "http://www.w3.org/Graphics/SVG/1.1/DTD/svg11.dtd">
<!-- Creator: CorelDRAW X6 -->
<svg xmlns="http://www.w3.org/2000/svg" xml:space="preserve" width="19px" height="31px" version="1.1" style="shape-rendering:geometricPrecision; text-rendering:geometricPrecision; image-rendering:optimizeQuality; fill-rule:evenodd; clip-rule:evenodd"
viewBox="0 0 3191 5175"
 xmlns:xlink="http://www.w3.org/1999/xlink">
 <defs>
  <style type="text/css">
   <![CDATA[
    .fil1 {fill:#67696B;fill-rule:nonzero}
    .fil0 {fill:#F1EFEC;fill-rule:nonzero}
   ]]>
  </style>
 </defs>
 <g id="Слой_x0020_1">
  <metadata id="CorelCorpID_0Corel-Layer"/>
  <g id="_794493696">
   <g>
    <path class="fil0" d="M2851 1655l0 0 -954 0c0,-2 0,-5 0,-7l0 -709c0,-108 -57,-202 -142,-256l0 -320c617,76 1096,602 1096,1239l0 53z"/>
    <path class="fil0" d="M2851 3573l0 0c0,688 -560,1249 -1248,1249l-14 0c-688,0 -1249,-560 -1249,-1249l0 -1599 2511 0 0 1599z"/>
    <path class="fil0" d="M340 1602l0 0c0,-637 479,-1164 1096,-1239l0 320c-85,53 -142,148 -142,256l0 709c0,2 0,5 0,7l-955 0 0 -53z"/>
    <path class="fil0" d="M1603 34l-14 0c-865,0 -1568,703 -1568,1568l0 1972c0,865 703,1568 1568,1568l14 0c865,0 1568,-703 1568,-1568l0 -1972c0,-865 -703,-1568 -1568,-1568zm-7 710c112,0 203,91 203,203 0,112 -91,203 -203,203 -112,0 -203,-91 -203,-203 0,-112 91,-203 203,-203z"/>
   </g>
   <path class="fil1" d="M1603 0l-14 0c-876,0 -1588,713 -1588,1588l0 1998c0,876 712,1588 1588,1588l14 0c876,0 1588,-712 1588,-1588l0 -1998c0,-876 -712,-1588 -1588,-1588zm-7 775l0 0c83,0 150,67 150,150 0,83 -67,150 -150,150 -83,0 -150,-67 -150,-150 0,-83 67,-150 150,-150zm-1272 814l0 0c0,-645 486,-1179 1111,-1255l0 324c-86,54 -144,150 -144,259l0 719c0,2 0,5 0,7l-967 0 0 -54zm2545 1998l0 0c0,698 -568,1265 -1265,1265l-14 0c-698,0 -1265,-568 -1265,-1265l0 -1620 2545 0 0 1620zm0 -1944l0 0 -967 0c0,-2 0,-5 0,-7l0 -719c0,-109 -58,-205 -144,-259l0 -324c625,77 1111,610 1111,1255l0 54z"/>
  </g>
 </g>
</svg>
